server {
    server_name tuijianbao.net www.tuijianbao.net;
    access_log /cube/app/tuijianbao.net/logs/access.log;
    error_log /cube/app/tuijianbao.net/logs/error.log;
    root /cube/app/tuijianbao.net/public_html;

    location / {
        index  index.html index.htm;
    }

    location ~ \.php$ {
        include /etc/nginx/fastcgi_params;
        fastcgi_pass unix:/var/run/php-fastcgi/php-fastcgi.socket;
        fastcgi_index index.php;
        fastcgi_param SCRIPT_FILENAME /cube/app/tuijianbao.net/public_html$fastcgi_script_name;
    }
}
